################
#>....m....m...#
#.c.m..G.m.c...#
#..G.........m.#
#.m..m..m..mG..#
#..............#
#..m.c...m..m.m#
#.....mG.....m@#
################

###############
#>...m.G.m...m#
#.#####.#####.#
#.#   #m#   #.#
#.#   #.#   #.#
#m#   #.#   #m#
#.#####.#####.#
#G.m...m...m.G#
#.#####.#####.#
#m#   #.#   #m#
#.#   #.#   #.#
#.#   #m#   #.#
#.#####.#####%#
#m...m.G.m..%@#
###############

######################
#..G.................##########
#@222................B.......>#
#...G................##########
######################